# Blender v2.66 (sub 1) OBJ File: ''
# www.blender.org
o Sphere
v -0.195090 0.980785 0.000000
v -0.382683 0.923880 0.000000
v -0.555570 0.831470 0.000000
v -0.707107 0.707107 0.000000
v -0.831470 0.555570 0.000000
v -0.923880 0.382683 0.000000
v -0.980785 0.195090 0.000000
v -1.000000 0.000000 0.000000
v -0.980785 -0.195090 0.000000
v -0.923880 -0.382683 0.000000
v -0.831470 -0.555570 0.000000
v -0.707107 -0.707107 0.000000
v -0.555570 -0.831470 0.000000
v -0.382683 -0.923880 0.000000
v -0.195090 -0.980785 0.000000
v 0.000000 -1.000000 0.000000
v -0.191342 0.980785 -0.038060
v -0.375330 0.923880 -0.074658
v -0.544895 0.831470 -0.108386
v -0.693520 0.707107 -0.137950
v -0.815493 0.555570 -0.162212
v -0.906127 0.382683 -0.180240
v -0.961940 0.195090 -0.191342
v -0.980785 0.000000 -0.195090
v -0.961940 -0.195090 -0.191342
v -0.906127 -0.382683 -0.180240
v -0.815493 -0.555570 -0.162212
v -0.693520 -0.707107 -0.137950
v -0.544895 -0.831470 -0.108386
v -0.375330 -0.923880 -0.074658
v -0.191341 -0.980785 -0.038060
v -0.180240 0.980785 -0.074658
v -0.353553 0.923880 -0.146447
v -0.513280 0.831470 -0.212608
v -0.653281 0.707107 -0.270598
v -0.768178 0.555570 -0.318190
v -0.853553 0.382683 -0.353553
v -0.906127 0.195090 -0.375330
v -0.923880 0.000000 -0.382684
v -0.906127 -0.195090 -0.375330
v -0.853553 -0.382683 -0.353554
v -0.768178 -0.555570 -0.318190
v -0.653281 -0.707107 -0.270598
v -0.513280 -0.831470 -0.212608
v -0.353553 -0.923880 -0.146447
v -0.180240 -0.980785 -0.074658
v -0.162212 0.980785 -0.108387
v -0.318190 0.923880 -0.212608
v -0.461940 0.831470 -0.308658
v -0.587938 0.707107 -0.392848
v -0.691342 0.555570 -0.461940
v -0.768178 0.382683 -0.513280
v -0.815493 0.195090 -0.544895
v -0.831470 0.000000 -0.555570
v -0.815493 -0.195090 -0.544895
v -0.768178 -0.382683 -0.513280
v -0.691342 -0.555570 -0.461940
v -0.587938 -0.707107 -0.392848
v -0.461940 -0.831470 -0.308658
v -0.318189 -0.923880 -0.212608
v -0.162211 -0.980785 -0.108386
v -0.137950 0.980785 -0.137950
v -0.270598 0.923880 -0.270598
v -0.392847 0.831470 -0.392848
v -0.500000 0.707107 -0.500000
v -0.587938 0.555570 -0.587938
v -0.653281 0.382683 -0.653282
v -0.693520 0.195090 -0.693520
v -0.707107 0.000000 -0.707107
v -0.693520 -0.195090 -0.693520
v -0.653281 -0.382683 -0.653282
v -0.587938 -0.555570 -0.587938
v -0.500000 -0.707107 -0.500000
v -0.392847 -0.831470 -0.392848
v -0.270598 -0.923880 -0.270598
v -0.137949 -0.980785 -0.137950
v -0.108386 0.980785 -0.162212
v -0.212607 0.923880 -0.318190
v -0.308658 0.831470 -0.461940
v -0.392847 0.707107 -0.587938
v -0.461939 0.555570 -0.691342
v -0.513280 0.382683 -0.768178
v -0.544895 0.195090 -0.815493
v -0.555570 0.000000 -0.831470
v -0.544895 -0.195090 -0.815493
v -0.513280 -0.382683 -0.768178
v -0.461939 -0.555570 -0.691342
v -0.392847 -0.707107 -0.587938
v -0.308658 -0.831470 -0.461940
v -0.212607 -0.923880 -0.318190
v -0.108386 -0.980785 -0.162212
v -0.074658 0.980785 -0.180240
v -0.146446 0.923880 -0.353554
v -0.212607 0.831470 -0.513280
v -0.270598 0.707107 -0.653282
v -0.318189 0.555570 -0.768178
v -0.353553 0.382683 -0.853554
v -0.375330 0.195090 -0.906128
v -0.382683 0.000000 -0.923880
v -0.375330 -0.195090 -0.906128
v -0.353553 -0.382683 -0.853554
v -0.318189 -0.555570 -0.768178
v -0.270598 -0.707107 -0.653282
v -0.212607 -0.831470 -0.513280
v -0.146446 -0.923880 -0.353554
v -0.074658 -0.980785 -0.180240
v -0.038060 0.980785 -0.191342
v -0.074658 0.923880 -0.375331
v -0.108386 0.831470 -0.544895
v -0.137949 0.707107 -0.693520
v -0.162211 0.555570 -0.815493
v -0.180240 0.382683 -0.906128
v -0.191341 0.195090 -0.961940
v -0.195090 0.000000 -0.980785
v -0.191341 -0.195090 -0.961940
v -0.180240 -0.382683 -0.906128
v -0.162211 -0.555570 -0.815493
v -0.137949 -0.707107 -0.693520
v -0.108386 -0.831470 -0.544895
v -0.074658 -0.923880 -0.375330
v -0.038060 -0.980785 -0.191342
v 0.000000 0.980785 -0.195091
v 0.000000 0.923880 -0.382684
v 0.000000 0.831470 -0.555570
v 0.000000 0.707107 -0.707107
v 0.000000 0.555570 -0.831470
v 0.000000 0.382683 -0.923880
v 0.000000 0.195090 -0.980785
v 0.000000 0.000000 -1.000000
v 0.000000 -0.195090 -0.980785
v 0.000000 -0.382683 -0.923880
v 0.000000 -0.555570 -0.831470
v 0.000000 -0.707107 -0.707107
v 0.000000 -0.831470 -0.555570
v 0.000000 -0.923880 -0.382684
v 0.000000 -0.980785 -0.195090
v 0.038061 0.980785 -0.191342
v 0.074658 0.923880 -0.375330
v 0.108387 0.831470 -0.544895
v 0.137950 0.707107 -0.693520
v 0.162212 0.555570 -0.815493
v 0.180240 0.382683 -0.906128
v 0.191342 0.195090 -0.961940
v 0.195091 0.000000 -0.980785
v 0.191342 -0.195090 -0.961940
v 0.180240 -0.382683 -0.906128
v 0.162212 -0.555570 -0.815493
v 0.137950 -0.707107 -0.693520
v 0.108387 -0.831470 -0.544895
v 0.074658 -0.923880 -0.375330
v 0.038061 -0.980785 -0.191342
v 0.074658 0.980785 -0.180240
v 0.146447 0.923880 -0.353554
v 0.212608 0.831470 -0.513280
v 0.270599 0.707107 -0.653282
v 0.318190 0.555570 -0.768178
v 0.353554 0.382683 -0.853553
v 0.375331 0.195090 -0.906127
v 0.382684 0.000000 -0.923880
v 0.375331 -0.195090 -0.906127
v 0.353554 -0.382683 -0.853554
v 0.318190 -0.555570 -0.768178
v 0.270599 -0.707107 -0.653282
v 0.212608 -0.831470 -0.513280
v 0.146447 -0.923880 -0.353553
v 0.074658 -0.980785 -0.180240
v 0.108387 0.980785 -0.162212
v 0.212608 0.923880 -0.318190
v 0.308659 0.831470 -0.461940
v 0.392848 0.707107 -0.587938
v 0.461940 0.555570 -0.691342
v 0.513280 0.382683 -0.768178
v 0.544895 0.195090 -0.815493
v 0.555571 0.000000 -0.831470
v 0.544895 -0.195090 -0.815493
v 0.513280 -0.382683 -0.768178
v 0.461940 -0.555570 -0.691342
v 0.392848 -0.707107 -0.587938
v 0.308659 -0.831470 -0.461940
v 0.212608 -0.923880 -0.318190
v 0.108387 -0.980785 -0.162212
v 0.137950 0.980785 -0.137950
v 0.270599 0.923880 -0.270598
v 0.392848 0.831470 -0.392848
v 0.500000 0.707107 -0.500000
v 0.587938 0.555570 -0.587938
v 0.653282 0.382683 -0.653281
v 0.693520 0.195090 -0.693520
v 0.707107 0.000000 -0.707107
v 0.693520 -0.195090 -0.693520
v 0.653282 -0.382683 -0.653282
v 0.587938 -0.555570 -0.587938
v 0.500000 -0.707107 -0.500000
v 0.392848 -0.831470 -0.392847
v 0.270598 -0.923880 -0.270598
v 0.137950 -0.980785 -0.137950
v 0.162212 0.980785 -0.108386
v 0.318190 0.923880 -0.212608
v 0.461940 0.831470 -0.308658
v 0.587938 0.707107 -0.392847
v 0.691342 0.555570 -0.461940
v 0.768178 0.382683 -0.513280
v 0.815493 0.195090 -0.544895
v 0.831470 0.000000 -0.555570
v 0.815493 -0.195090 -0.544895
v 0.768178 -0.382683 -0.513280
v 0.691342 -0.555570 -0.461940
v 0.587938 -0.707107 -0.392847
v 0.461940 -0.831470 -0.308658
v 0.318190 -0.923880 -0.212608
v 0.162212 -0.980785 -0.108386
v 0.180240 0.980785 -0.074658
v 0.353554 0.923880 -0.146447
v 0.513280 0.831470 -0.212608
v 0.653282 0.707107 -0.270598
v 0.768178 0.555570 -0.318190
v 0.853554 0.382683 -0.353553
v 0.906128 0.195090 -0.375330
v 0.923880 0.000000 -0.382683
v 0.906128 -0.195090 -0.375330
v 0.853554 -0.382683 -0.353553
v 0.768178 -0.555570 -0.318190
v 0.653282 -0.707107 -0.270598
v 0.513280 -0.831470 -0.212607
v 0.353554 -0.923880 -0.146447
v 0.180240 -0.980785 -0.074658
v 0.191342 0.980785 -0.038060
v 0.375331 0.923880 -0.074658
v 0.544896 0.831470 -0.108386
v 0.693520 0.707107 -0.137950
v 0.815493 0.555570 -0.162212
v 0.906128 0.382683 -0.180240
v 0.961940 0.195090 -0.191342
v 0.980785 0.000000 -0.195090
v 0.961940 -0.195090 -0.191342
v 0.906128 -0.382683 -0.180240
v 0.815493 -0.555570 -0.162212
v 0.693520 -0.707107 -0.137950
v 0.544895 -0.831470 -0.108386
v 0.375331 -0.923880 -0.074658
v 0.191342 -0.980785 -0.038060
v 0.195091 0.980785 0.000000
v 0.382684 0.923880 0.000000
v 0.555571 0.831470 0.000000
v 0.707107 0.707107 0.000000
v 0.831470 0.555570 0.000000
v 0.923880 0.382683 0.000000
v 0.980785 0.195090 0.000000
v 1.000000 0.000000 0.000000
v 0.980785 -0.195090 0.000000
v 0.923880 -0.382683 0.000000
v 0.831470 -0.555570 0.000000
v 0.707107 -0.707107 0.000000
v 0.555571 -0.831470 0.000000
v 0.382684 -0.923880 0.000000
v 0.195091 -0.980785 0.000000
v 0.191342 0.980785 0.038060
v 0.375331 0.923880 0.074658
v 0.544896 0.831470 0.108386
v 0.693520 0.707107 0.137950
v 0.815493 0.555570 0.162212
v 0.906128 0.382683 0.180240
v 0.961940 0.195090 0.191342
v 0.980785 0.000000 0.195090
v 0.961940 -0.195090 0.191342
v 0.906128 -0.382683 0.180240
v 0.815493 -0.555570 0.162212
v 0.693520 -0.707107 0.137950
v 0.544895 -0.831470 0.108386
v 0.375331 -0.923880 0.074658
v 0.191342 -0.980785 0.038060
v 0.180240 0.980785 0.074658
v 0.353554 0.923880 0.146447
v 0.513280 0.831470 0.212608
v 0.653282 0.707107 0.270598
v 0.768178 0.555570 0.318190
v 0.853554 0.382683 0.353554
v 0.906128 0.195090 0.375330
v 0.923880 0.000000 0.382683
v 0.906128 -0.195090 0.375330
v 0.853554 -0.382683 0.353553
v 0.768178 -0.555570 0.318190
v 0.653282 -0.707107 0.270598
v 0.513280 -0.831470 0.212608
v 0.353554 -0.923880 0.146447
v 0.180240 -0.980785 0.074658
v 0.162212 0.980785 0.108387
v 0.318190 0.923880 0.212608
v 0.461940 0.831470 0.308658
v 0.587938 0.707107 0.392848
v 0.691342 0.555570 0.461940
v 0.768178 0.382683 0.513280
v 0.815493 0.195090 0.544895
v 0.831470 0.000000 0.555570
v 0.815493 -0.195090 0.544895
v 0.768178 -0.382683 0.513280
v 0.691342 -0.555570 0.461940
v 0.587938 -0.707107 0.392848
v 0.461940 -0.831470 0.308658
v 0.318190 -0.923880 0.212608
v 0.162212 -0.980785 0.108386
v 0.137950 0.980785 0.137950
v 0.270598 0.923880 0.270598
v 0.392848 0.831470 0.392848
v 0.500000 0.707107 0.500000
v 0.587938 0.555570 0.587938
v 0.653282 0.382683 0.653282
v 0.693520 0.195090 0.693520
v 0.707107 0.000000 0.707107
v 0.693520 -0.195090 0.693520
v 0.653282 -0.382683 0.653282
v 0.587938 -0.555570 0.587938
v 0.500000 -0.707107 0.500000
v 0.392848 -0.831470 0.392848
v 0.270598 -0.923880 0.270598
v 0.137950 -0.980785 0.137950
v 0.108387 0.980785 0.162212
v 0.212608 0.923880 0.318190
v 0.308659 0.831470 0.461940
v 0.392848 0.707107 0.587938
v 0.461940 0.555570 0.691342
v 0.513280 0.382683 0.768178
v 0.544895 0.195090 0.815493
v 0.555570 0.000000 0.831469
v 0.544895 -0.195090 0.815493
v 0.513280 -0.382683 0.768178
v 0.461940 -0.555570 0.691342
v 0.392848 -0.707107 0.587938
v 0.308659 -0.831470 0.461940
v 0.212608 -0.923880 0.318190
v 0.108387 -0.980785 0.162212
v 0.074658 0.980785 0.180240
v 0.146447 0.923880 0.353554
v 0.212608 0.831470 0.513280
v 0.270598 0.707107 0.653281
v 0.318190 0.555570 0.768178
v 0.353554 0.382683 0.853553
v 0.375330 0.195090 0.906127
v 0.382683 0.000000 0.923879
v 0.375330 -0.195090 0.906127
v 0.353554 -0.382683 0.853553
v 0.318190 -0.555570 0.768178
v 0.270598 -0.707107 0.653281
v 0.212608 -0.831470 0.513280
v 0.146447 -0.923880 0.353553
v 0.074658 -0.980785 0.180240
v 0.038061 0.980785 0.191342
v 0.074658 0.923880 0.375330
v 0.108387 0.831470 0.544895
v 0.137950 0.707107 0.693520
v 0.162212 0.555570 0.815493
v 0.180240 0.382683 0.906127
v 0.191342 0.195090 0.961940
v 0.195090 0.000000 0.980785
v 0.191342 -0.195090 0.961940
v 0.180240 -0.382683 0.906128
v 0.162212 -0.555570 0.815493
v 0.137950 -0.707107 0.693520
v 0.108387 -0.831470 0.544895
v 0.074658 -0.923880 0.375330
v 0.038061 -0.980785 0.191342
v 0.000000 0.980785 0.195090
v 0.000000 0.923880 0.382684
v 0.000000 0.831470 0.555570
v 0.000000 0.707107 0.707107
v 0.000000 0.555570 0.831469
v 0.000000 0.382683 0.923879
v 0.000000 0.195090 0.980785
v 0.000000 0.000000 1.000000
v 0.000000 -0.195090 0.980785
v 0.000000 -0.382683 0.923880
v 0.000000 -0.555570 0.831469
v 0.000000 -0.707107 0.707107
v 0.000000 -0.831470 0.555570
v 0.000000 -0.923880 0.382683
v 0.000000 -0.980785 0.195090
v -0.038060 0.980785 0.191342
v -0.074658 0.923880 0.375330
v -0.108386 0.831470 0.544895
v -0.137949 0.707107 0.693520
v -0.162211 0.555570 0.815493
v -0.180240 0.382683 0.906127
v -0.191342 0.195090 0.961939
v -0.195090 0.000000 0.980785
v -0.191342 -0.195090 0.961939
v -0.180240 -0.382683 0.906127
v -0.162211 -0.555570 0.815493
v -0.137949 -0.707107 0.693520
v -0.108386 -0.831470 0.544895
v -0.074658 -0.923880 0.375330
v -0.038060 -0.980785 0.191342
v 0.000000 1.000000 0.000000
v -0.074658 0.980785 0.180240
v -0.146446 0.923880 0.353553
v -0.212607 0.831470 0.513280
v -0.270598 0.707107 0.653281
v -0.318189 0.555570 0.768177
v -0.353553 0.382683 0.853553
v -0.375330 0.195090 0.906127
v -0.382683 0.000000 0.923879
v -0.375330 -0.195090 0.906127
v -0.353553 -0.382683 0.853553
v -0.318189 -0.555570 0.768177
v -0.270598 -0.707107 0.653281
v -0.212607 -0.831470 0.513280
v -0.146446 -0.923880 0.353553
v -0.074657 -0.980785 0.180240
v -0.108386 0.980785 0.162212
v -0.212607 0.923880 0.318190
v -0.308658 0.831470 0.461940
v -0.392847 0.707107 0.587938
v -0.461939 0.555570 0.691341
v -0.513280 0.382683 0.768178
v -0.544895 0.195090 0.815493
v -0.555570 0.000000 0.831469
v -0.544895 -0.195090 0.815493
v -0.513280 -0.382683 0.768178
v -0.461939 -0.555570 0.691341
v -0.392847 -0.707107 0.587938
v -0.308658 -0.831470 0.461940
v -0.212607 -0.923880 0.318190
v -0.108386 -0.980785 0.162212
v -0.137949 0.980785 0.137950
v -0.270598 0.923880 0.270598
v -0.392847 0.831470 0.392847
v -0.500000 0.707107 0.500000
v -0.587937 0.555570 0.587937
v -0.653281 0.382683 0.653281
v -0.693519 0.195090 0.693519
v -0.707106 0.000000 0.707106
v -0.693519 -0.195090 0.693519
v -0.653281 -0.382683 0.653281
v -0.587937 -0.555570 0.587937
v -0.500000 -0.707107 0.500000
v -0.392847 -0.831470 0.392847
v -0.270598 -0.923880 0.270598
v -0.137949 -0.980785 0.137950
v -0.162211 0.980785 0.108386
v -0.318189 0.923880 0.212608
v -0.461939 0.831470 0.308658
v -0.587937 0.707107 0.392847
v -0.691341 0.555570 0.461939
v -0.768177 0.382683 0.513280
v -0.815493 0.195090 0.544895
v -0.831469 0.000000 0.555570
v -0.815493 -0.195090 0.544895
v -0.768178 -0.382683 0.513280
v -0.691341 -0.555570 0.461939
v -0.587937 -0.707107 0.392847
v -0.461939 -0.831470 0.308658
v -0.318189 -0.923880 0.212608
v -0.162211 -0.980785 0.108386
v -0.180240 0.980785 0.074658
v -0.353553 0.923880 0.146447
v -0.513280 0.831470 0.212607
v -0.653281 0.707107 0.270598
v -0.768177 0.555570 0.318189
v -0.853553 0.382683 0.353553
v -0.906127 0.195090 0.375330
v -0.923879 0.000000 0.382683
v -0.906127 -0.195090 0.375330
v -0.853553 -0.382683 0.353553
v -0.768177 -0.555570 0.318189
v -0.653281 -0.707107 0.270598
v -0.513280 -0.831470 0.212607
v -0.353553 -0.923880 0.146447
v -0.180240 -0.980785 0.074658
v -0.191341 0.980785 0.038060
v -0.375330 0.923880 0.074658
v -0.544895 0.831470 0.108386
v -0.693520 0.707107 0.137950
v -0.815492 0.555570 0.162211
v -0.906127 0.382683 0.180240
v -0.961939 0.195090 0.191341
v -0.980784 0.000000 0.195090
v -0.961939 -0.195090 0.191341
v -0.906127 -0.382683 0.180240
v -0.815492 -0.555570 0.162211
v -0.693520 -0.707107 0.137950
v -0.544895 -0.831470 0.108386
v -0.375330 -0.923880 0.074658
v -0.191341 -0.980785 0.038060
vn -0.710135 -0.704031 0.000000
vn -0.833338 -0.552751 0.000000
vn -0.696493 -0.704031 -0.138524
vn -0.924741 0.380535 0.000000
vn -0.833338 0.552751 0.000000
vn -0.906980 0.380535 -0.180395
vn -0.559771 -0.828639 0.000000
vn -0.548997 -0.828639 -0.109195
vn -0.980987 0.193915 0.000000
vn -0.962157 0.193915 -0.191382
vn -0.387860 -0.921690 0.000000
vn -0.380413 -0.921690 -0.075655
vn -1.000000 0.000000 0.000000
vn -0.980773 0.000000 -0.195074
vn -0.387860 0.921690 0.000000
vn -0.200964 0.979583 0.000000
vn -0.380413 0.921690 -0.075655
vn -0.200964 -0.979583 0.000000
vn -0.197089 -0.979583 -0.039186
vn -0.980987 -0.193915 0.000000
vn -0.962157 -0.193915 -0.191382
vn -0.559771 0.828639 0.000000
vn -0.548997 0.828639 -0.109195
vn -0.924741 -0.380535 0.000000
vn -0.906980 -0.380535 -0.180395
vn -0.710135 0.704031 0.000000
vn -0.696493 0.704031 -0.138524
vn -0.817316 -0.552751 -0.162572
vn -0.817316 0.552751 -0.162572
vn -0.358348 -0.921690 -0.148412
vn -0.923856 0.000000 -0.382672
vn -0.197089 0.979583 -0.039186
vn -0.358348 0.921690 -0.148412
vn -0.185644 -0.979583 -0.076907
vn -0.906339 -0.193915 -0.375408
vn -0.517136 0.828639 -0.214209
vn -0.854366 -0.380535 -0.353862
vn -0.656056 0.704031 -0.271737
vn -0.769890 -0.552751 -0.318888
vn -0.769890 0.552751 -0.318888
vn -0.656056 -0.704031 -0.271737
vn -0.854366 0.380535 -0.353893
vn -0.517136 -0.828639 -0.214209
vn -0.906339 0.193915 -0.375408
vn -0.590442 -0.704031 -0.394513
vn -0.768914 0.380535 -0.513749
vn -0.465407 -0.828639 -0.310984
vn -0.815668 0.193915 -0.545000
vn -0.322489 -0.921690 -0.215491
vn -0.831446 0.000000 -0.555559
vn -0.185644 0.979583 -0.076907
vn -0.322489 0.921690 -0.215491
vn -0.167089 -0.979583 -0.111637
vn -0.815668 -0.193915 -0.545000
vn -0.465407 0.828639 -0.310984
vn -0.768914 -0.380535 -0.513749
vn -0.590442 0.704031 -0.394513
vn -0.692892 -0.552751 -0.462966
vn -0.692892 0.552751 -0.462966
vn -0.653890 -0.380535 -0.653890
vn -0.502121 0.704031 -0.502121
vn -0.589251 -0.552751 -0.589251
vn -0.589251 0.552751 -0.589251
vn -0.502121 -0.704031 -0.502121
vn -0.653890 0.380535 -0.653890
vn -0.395795 -0.828639 -0.395795
vn -0.693655 0.193915 -0.693655
vn -0.274270 -0.921690 -0.274270
vn -0.707083 0.000000 -0.707083
vn -0.167089 0.979583 -0.111637
vn -0.274270 0.921690 -0.274270
vn -0.142094 -0.979583 -0.142094
vn -0.693655 -0.193915 -0.693655
vn -0.395795 0.828639 -0.395795
vn -0.215491 -0.921690 -0.322489
vn -0.555559 0.000000 -0.831446
vn -0.142094 0.979583 -0.142094
vn -0.215491 0.921690 -0.322489
vn -0.111637 -0.979583 -0.167089
vn -0.545000 -0.193915 -0.815668
vn -0.310984 0.828639 -0.465407
vn -0.513749 -0.380535 -0.768914
vn -0.394513 0.704031 -0.590442
vn -0.462966 -0.552751 -0.692892
vn -0.462966 0.552751 -0.692892
vn -0.394513 -0.704031 -0.590442
vn -0.513749 0.380535 -0.768914
vn -0.310984 -0.828639 -0.465407
vn -0.545000 0.193915 -0.815668
vn -0.271737 -0.704031 -0.656056
vn -0.353862 0.380535 -0.854366
vn -0.214209 -0.828639 -0.517136
vn -0.375408 0.193915 -0.906339
vn -0.148412 -0.921690 -0.358348
vn -0.111637 0.979583 -0.167089
vn -0.148412 0.921690 -0.358348
vn -0.076907 -0.979583 -0.185644
vn -0.375408 -0.193915 -0.906339
vn -0.214209 0.828639 -0.517136
vn -0.271737 0.704031 -0.656056
vn -0.318888 -0.552751 -0.769890
vn -0.318888 0.552751 -0.769890
vn -0.109195 0.828639 -0.548997
vn -0.353862 -0.380535 -0.854366
vn -0.191382 -0.193915 -0.962157
vn -0.138524 0.704031 -0.696493
vn -0.162572 -0.552751 -0.817316
vn -0.162572 0.552751 -0.817316
vn -0.138524 -0.704031 -0.696493
vn -0.180395 0.380535 -0.906980
vn -0.109195 -0.828639 -0.548997
vn -0.191382 0.193915 -0.962157
vn -0.075655 -0.921690 -0.380413
vn -0.382672 0.000000 -0.923856
vn -0.076907 0.979583 -0.185644
vn -0.075655 0.921690 -0.380413
vn -0.039186 -0.979583 -0.197089
vn 0.000000 0.193915 -0.980987
vn 0.000000 -0.921690 -0.387860
vn -0.195074 0.000000 -0.980773
vn -0.039186 0.979583 -0.197089
vn 0.000000 0.921690 -0.387860
vn 0.000000 -0.979583 -0.200964
vn 0.000000 -0.193915 -0.980987
vn 0.000000 0.828639 -0.559771
vn -0.180395 -0.380535 -0.906980
vn 0.000000 0.704031 -0.710135
vn 0.000000 -0.552751 -0.833338
vn 0.000000 0.552751 -0.833338
vn 0.000000 -0.704031 -0.710135
vn 0.000000 0.380535 -0.924741
vn 0.000000 -0.828639 -0.559771
vn 0.000000 -0.380535 -0.924741
vn 0.180395 -0.380535 -0.906980
vn 0.138524 0.704031 -0.696493
vn 0.162572 -0.552751 -0.817316
vn 0.162572 0.552751 -0.817316
vn 0.138524 -0.704031 -0.696493
vn 0.180395 0.380535 -0.906980
vn 0.109195 -0.828639 -0.548997
vn 0.000000 0.000000 -0.999969
vn 0.195074 0.000000 -0.980773
vn 0.000000 0.979583 -0.200964
vn 0.039186 0.979583 -0.197089
vn 0.075655 -0.921690 -0.380413
vn 0.075655 0.921690 -0.380413
vn 0.109195 0.828639 -0.548997
vn 0.039186 -0.979583 -0.197089
vn 0.148412 -0.921690 -0.358348
vn 0.191382 -0.193915 -0.962157
vn 0.382672 0.000000 -0.923856
vn 0.148412 0.921690 -0.358348
vn 0.353893 -0.380535 -0.854366
vn 0.214209 0.828639 -0.517136
vn 0.271737 0.704031 -0.656056
vn 0.318888 -0.552751 -0.769890
vn 0.318888 0.552751 -0.769890
vn 0.271737 -0.704031 -0.656056
vn 0.191382 0.193915 -0.962157
vn 0.353893 0.380535 -0.854366
vn 0.214209 -0.828639 -0.517136
vn 0.076907 0.979583 -0.185644
vn 0.394513 -0.704031 -0.590442
vn 0.375408 0.193915 -0.906339
vn 0.513749 0.380535 -0.768914
vn 0.310984 -0.828639 -0.465407
vn 0.545000 0.193915 -0.815668
vn 0.111637 0.979583 -0.167089
vn 0.076907 -0.979583 -0.185644
vn 0.215491 -0.921690 -0.322489
vn 0.375408 -0.193915 -0.906339
vn 0.555559 0.000000 -0.831446
vn 0.215491 0.921690 -0.322489
vn 0.513749 -0.380535 -0.768914
vn 0.310984 0.828639 -0.465407
vn 0.394513 0.704031 -0.590442
vn 0.462966 -0.552751 -0.692892
vn 0.462966 0.552751 -0.692892
vn 0.653890 -0.380535 -0.653890
vn 0.502121 0.704031 -0.502121
vn 0.589251 -0.552751 -0.589251
vn 0.589251 0.552751 -0.589251
vn 0.502121 -0.704031 -0.502121
vn 0.653890 0.380535 -0.653890
vn 0.395795 -0.828639 -0.395795
vn 0.693655 0.193915 -0.693655
vn 0.142094 0.979583 -0.142094
vn 0.111637 -0.979583 -0.167089
vn 0.274270 -0.921690 -0.274270
vn 0.545000 -0.193915 -0.815668
vn 0.707083 0.000000 -0.707083
vn 0.274270 0.921690 -0.274270
vn 0.395795 0.828639 -0.395795
vn 0.142094 -0.979583 -0.142094
vn 0.322489 -0.921690 -0.215491
vn 0.693655 -0.193915 -0.693655
vn 0.831446 0.000000 -0.555559
vn 0.322489 0.921690 -0.215491
vn 0.768914 -0.380535 -0.513749
vn 0.465407 0.828639 -0.310984
vn 0.590442 0.704031 -0.394513
vn 0.692892 -0.552751 -0.462966
vn 0.692892 0.552751 -0.462966
vn 0.590442 -0.704031 -0.394513
vn 0.768914 0.380535 -0.513749
vn 0.465407 -0.828639 -0.310984
vn 0.815668 0.193915 -0.545000
vn 0.167089 0.979583 -0.111637
vn 0.656056 -0.704031 -0.271737
vn 0.854366 0.380535 -0.353862
vn 0.517136 -0.828639 -0.214209
vn 0.906339 0.193915 -0.375408
vn 0.185644 0.979583 -0.076907
vn 0.167089 -0.979583 -0.111637
vn 0.358348 -0.921690 -0.148412
vn 0.815668 -0.193915 -0.545000
vn 0.923856 0.000000 -0.382672
vn 0.358348 0.921690 -0.148412
vn 0.906339 -0.193915 -0.375408
vn 0.517136 0.828639 -0.214209
vn 0.854366 -0.380535 -0.353862
vn 0.656056 0.704031 -0.271737
vn 0.769890 -0.552751 -0.318888
vn 0.769890 0.552751 -0.318888
vn 0.906980 -0.380535 -0.180395
vn 0.696493 0.704031 -0.138524
vn 0.817316 -0.552751 -0.162572
vn 0.817316 0.552751 -0.162572
vn 0.696493 -0.704031 -0.138524
vn 0.906980 0.380535 -0.180395
vn 0.548997 -0.828639 -0.109195
vn 0.962157 0.193915 -0.191382
vn 0.197089 0.979583 -0.039186
vn 0.185644 -0.979583 -0.076907
vn 0.380413 -0.921690 -0.075655
vn 0.980773 0.000000 -0.195074
vn 0.380413 0.921690 -0.075655
vn 0.962157 -0.193915 -0.191382
vn 0.548997 0.828639 -0.109195
vn 0.200964 0.979583 0.000000
vn 0.197089 -0.979583 -0.039186
vn 0.387860 -0.921690 0.000000
vn 1.000000 0.000000 0.000000
vn 0.387860 0.921690 0.000000
vn 0.924741 -0.380535 0.000000
vn 0.559771 0.828639 0.000000
vn 0.710135 0.704031 0.000000
vn 0.833338 -0.552751 0.000000
vn 0.833338 0.552751 0.000000
vn 0.710135 -0.704031 0.000000
vn 0.924741 0.380535 0.000000
vn 0.559771 -0.828639 0.000000
vn 0.980987 0.193915 0.000000
vn 0.817316 0.552751 0.162572
vn 0.696493 -0.704031 0.138524
vn 0.906980 0.380535 0.180395
vn 0.548997 -0.828639 0.109195
vn 0.962157 0.193915 0.191382
vn 0.197089 0.979583 0.039186
vn 0.200964 -0.979583 0.000000
vn 0.380413 -0.921690 0.075655
vn 0.980987 -0.193915 0.000000
vn 0.980773 0.000000 0.195074
vn 0.380413 0.921690 0.075655
vn 0.962157 -0.193915 0.191382
vn 0.548997 0.828639 0.109195
vn 0.906980 -0.380535 0.180395
vn 0.696493 0.704031 0.138524
vn 0.817316 -0.552751 0.162572
vn 0.906339 -0.193915 0.375408
vn 0.517136 0.828639 0.214209
vn 0.854366 -0.380535 0.353893
vn 0.656056 0.704031 0.271737
vn 0.769890 -0.552751 0.318888
vn 0.769890 0.552751 0.318888
vn 0.656056 -0.704031 0.271737
vn 0.854366 0.380535 0.353893
vn 0.517136 -0.828639 0.214209
vn 0.906339 0.193915 0.375408
vn 0.185644 0.979583 0.076907
vn 0.197089 -0.979583 0.039186
vn 0.358348 -0.921690 0.148412
vn 0.923856 0.000000 0.382672
vn 0.358348 0.921690 0.148412
vn 0.465407 -0.828639 0.310984
vn 0.815668 0.193915 0.545000
vn 0.167089 0.979583 0.111637
vn 0.185644 -0.979583 0.076907
vn 0.322489 -0.921690 0.215491
vn 0.831446 0.000000 0.555559
vn 0.322489 0.921690 0.215491
vn 0.768914 -0.380535 0.513749
vn 0.465407 0.828639 0.310984
vn 0.590442 0.704031 0.394513
vn 0.692892 -0.552751 0.462966
vn 0.692892 0.552751 0.462966
vn 0.590442 -0.704031 0.394513
vn 0.768914 0.380535 0.513749
vn 0.589251 -0.552751 0.589251
vn 0.589251 0.552751 0.589251
vn 0.502121 -0.704031 0.502121
vn 0.653890 0.380535 0.653890
vn 0.395795 -0.828639 0.395795
vn 0.693655 0.193915 0.693655
vn 0.142094 0.979583 0.142094
vn 0.167089 -0.979583 0.111637
vn 0.274270 -0.921690 0.274270
vn 0.815668 -0.193915 0.545000
vn 0.707083 0.000000 0.707083
vn 0.274270 0.921690 0.274270
vn 0.653890 -0.380535 0.653890
vn 0.395795 0.828639 0.395795
vn 0.502121 0.704031 0.502121
vn 0.693655 -0.193915 0.693655
vn 0.545000 -0.193915 0.815668
vn 0.310984 0.828639 0.465407
vn 0.513749 -0.380535 0.768914
vn 0.394513 0.704031 0.590442
vn 0.462966 -0.552751 0.692892
vn 0.462966 0.552751 0.692892
vn 0.394513 -0.704031 0.590442
vn 0.513749 0.380535 0.768914
vn 0.310984 -0.828639 0.465407
vn 0.545000 0.193915 0.815668
vn 0.111637 0.979583 0.167089
vn 0.142094 -0.979583 0.142094
vn 0.215491 -0.921690 0.322489
vn 0.555559 0.000000 0.831446
vn 0.215491 0.921690 0.322489
vn 0.214209 -0.828639 0.517136
vn 0.375408 0.193915 0.906339
vn 0.076907 0.979583 0.185644
vn 0.111637 -0.979583 0.167089
vn 0.148412 -0.921690 0.358348
vn 0.382672 0.000000 0.923856
vn 0.148412 0.921690 0.358348
vn 0.375408 -0.193915 0.906339
vn 0.214209 0.828639 0.517136
vn 0.353862 -0.380535 0.854366
vn 0.271737 0.704031 0.656056
vn 0.318888 -0.552751 0.769890
vn 0.318888 0.552751 0.769890
vn 0.271737 -0.704031 0.656056
vn 0.353862 0.380535 0.854366
vn 0.162572 -0.552751 0.817316
vn 0.162572 0.552751 0.817316
vn 0.138524 -0.704031 0.696493
vn 0.180395 0.380535 0.906980
vn 0.109195 -0.828639 0.548997
vn 0.191382 0.193915 0.962157
vn 0.039186 0.979583 0.197089
vn 0.076907 -0.979583 0.185644
vn 0.075655 -0.921690 0.380413
vn 0.195074 0.000000 0.980773
vn 0.075655 0.921690 0.380413
vn 0.191382 -0.193915 0.962157
vn 0.109195 0.828639 0.548997
vn 0.180395 -0.380535 0.906980
vn 0.138524 0.704031 0.696493
vn 0.000000 -0.193915 0.980987
vn 0.000000 0.828639 0.559771
vn 0.000000 -0.380535 0.924741
vn 0.000000 0.704031 0.710135
vn 0.000000 -0.552751 0.833338
vn 0.000000 0.552751 0.833338
vn 0.000000 -0.704031 0.710135
vn 0.000000 0.380535 0.924741
vn 0.000000 -0.828639 0.559771
vn 0.000000 0.193915 0.980987
vn 0.000000 0.979583 0.200964
vn 0.039186 -0.979583 0.197089
vn 0.000000 -0.921690 0.387860
vn 0.000000 0.000000 1.000000
vn 0.000000 0.921690 0.387860
vn -0.075655 -0.921690 0.380413
vn -0.195074 0.000000 0.980773
vn -0.075655 0.921690 0.380413
vn 0.000000 -0.979583 0.200964
vn -0.039186 -0.979583 0.197089
vn -0.191382 -0.193915 0.962157
vn -0.109195 0.828639 0.548997
vn -0.180395 -0.380535 0.906980
vn -0.138524 0.704031 0.696493
vn -0.162572 -0.552751 0.817316
vn -0.162572 0.552751 0.817316
vn -0.138524 -0.704031 0.696493
vn -0.180395 0.380535 0.906980
vn -0.109195 -0.828639 0.548997
vn -0.191382 0.193915 0.962157
vn -0.318888 0.552751 0.769890
vn -0.271737 -0.704031 0.656056
vn -0.353893 0.380535 0.854366
vn -0.214209 -0.828639 0.517136
vn -0.375408 0.193915 0.906339
vn -0.148412 -0.921690 0.358348
vn -0.382672 0.000000 0.923856
vn -0.039186 0.979583 0.197089
vn -0.148412 0.921690 0.358348
vn -0.076907 -0.979583 0.185644
vn -0.375408 -0.193915 0.906339
vn -0.214209 0.828639 0.517136
vn -0.353893 -0.380535 0.854366
vn -0.271737 0.704031 0.656056
vn -0.318888 -0.552751 0.769890
vn -0.545000 -0.193915 0.815668
vn -0.310984 0.828639 0.465407
vn -0.513749 -0.380535 0.768914
vn -0.394513 0.704031 0.590442
vn -0.462966 -0.552751 0.692892
vn -0.462966 0.552751 0.692892
vn -0.394513 -0.704031 0.590442
vn -0.513749 0.380535 0.768914
vn -0.310984 -0.828639 0.465407
vn -0.545000 0.193915 0.815668
vn -0.215491 -0.921690 0.322489
vn -0.555559 0.000000 0.831446
vn -0.076907 0.979583 0.185644
vn -0.215491 0.921690 0.322489
vn -0.111637 -0.979583 0.167089
vn -0.395795 -0.828639 0.395795
vn -0.693655 0.193915 0.693655
vn -0.274270 -0.921690 0.274270
vn -0.707083 0.000000 0.707083
vn -0.111637 0.979583 0.167089
vn -0.274270 0.921690 0.274270
vn -0.142094 -0.979583 0.142094
vn -0.693655 -0.193915 0.693655
vn -0.395795 0.828639 0.395795
vn -0.653890 -0.380535 0.653890
vn -0.502121 0.704031 0.502121
vn -0.589251 -0.552751 0.589251
vn -0.589251 0.552751 0.589251
vn -0.502121 -0.704031 0.502121
vn -0.653890 0.380535 0.653890
vn -0.692892 -0.552751 0.462966
vn -0.692892 0.552751 0.462966
vn -0.590442 -0.704031 0.394513
vn -0.768914 0.380535 0.513749
vn -0.465407 -0.828639 0.310984
vn -0.815668 0.193915 0.545000
vn -0.322489 -0.921690 0.215491
vn -0.831446 0.000000 0.555559
vn -0.142094 0.979583 0.142094
vn -0.322489 0.921690 0.215491
vn -0.167089 -0.979583 0.111637
vn -0.815668 -0.193915 0.545000
vn -0.465407 0.828639 0.310984
vn -0.768914 -0.380535 0.513749
vn -0.590442 0.704031 0.394513
vn -0.185644 -0.979583 0.076907
vn -0.906339 -0.193915 0.375408
vn -0.517136 0.828639 0.214209
vn -0.854366 -0.380535 0.353862
vn -0.656056 0.704031 0.271737
vn -0.769890 -0.552751 0.318888
vn -0.769890 0.552751 0.318888
vn -0.656056 -0.704031 0.271737
vn -0.854366 0.380535 0.353862
vn -0.517136 -0.828639 0.214209
vn -0.906339 0.193915 0.375408
vn -0.358348 -0.921690 0.148412
vn -0.923856 0.000000 0.382672
vn -0.167089 0.979583 0.111637
vn -0.358348 0.921690 0.148412
vn -0.548997 -0.828639 0.109195
vn -0.962157 0.193915 0.191382
vn -0.380413 -0.921690 0.075655
vn -0.980773 0.000000 0.195074
vn -0.185644 0.979583 0.076907
vn -0.380413 0.921690 0.075655
vn -0.197089 -0.979583 0.039186
vn -0.962157 -0.193915 0.191382
vn -0.548997 0.828639 0.109195
vn -0.906980 -0.380535 0.180395
vn -0.696493 0.704031 0.138524
vn -0.817316 -0.552751 0.162572
vn -0.817316 0.552751 0.162572
vn -0.696493 -0.704031 0.138524
vn -0.906980 0.380535 0.180395
vn 0.000000 1.000000 0.000000
vn 0.000000 -1.000000 0.000000
vn -0.197089 0.979583 0.039186
s 1
f 12//1 11//2 28//3
f 6//4 5//5 22//6
f 13//7 12//1 29//8
f 7//9 6//4 23//10
f 14//11 13//7 30//12
f 8//13 7//9 24//14
f 2//15 1//16 18//17
f 15//18 14//11 31//19
f 9//20 8//13 25//21
f 3//22 2//15 19//23
f 10//24 9//20 26//25
f 4//26 3//22 20//27
f 11//2 10//24 27//28
f 5//5 4//26 21//29
f 30//12 29//8 45//30
f 24//14 23//10 39//31
f 18//17 17//32 33//33
f 31//19 30//12 46//34
f 25//21 24//14 40//35
f 19//23 18//17 34//36
f 26//25 25//21 41//37
f 20//27 19//23 35//38
f 27//28 26//25 42//39
f 21//29 20//27 36//40
f 28//3 27//28 43//41
f 22//6 21//29 37//42
f 29//8 28//3 44//43
f 23//10 22//6 38//44
f 43//41 42//39 58//45
f 37//42 36//40 52//46
f 44//43 43//41 59//47
f 38//44 37//42 53//48
f 45//30 44//43 60//49
f 39//31 38//44 54//50
f 33//33 32//51 48//52
f 46//34 45//30 61//53
f 40//35 39//31 55//54
f 34//36 33//33 49//55
f 41//37 40//35 56//56
f 35//38 34//36 50//57
f 42//39 41//37 57//58
f 36//40 35//38 51//59
f 56//56 55//54 71//60
f 50//57 49//55 65//61
f 57//58 56//56 72//62
f 51//59 50//57 66//63
f 58//45 57//58 73//64
f 52//46 51//59 67//65
f 59//47 58//45 74//66
f 53//48 52//46 68//67
f 60//49 59//47 75//68
f 54//50 53//48 69//69
f 48//52 47//70 63//71
f 61//53 60//49 76//72
f 55//54 54//50 70//73
f 49//55 48//52 64//74
f 75//68 74//66 90//75
f 69//69 68//67 84//76
f 63//71 62//77 78//78
f 76//72 75//68 91//79
f 70//73 69//69 85//80
f 64//74 63//71 79//81
f 71//60 70//73 86//82
f 65//61 64//74 80//83
f 72//62 71//60 87//84
f 66//63 65//61 81//85
f 73//64 72//62 88//86
f 67//65 66//63 82//87
f 74//66 73//64 89//88
f 68//67 67//65 83//89
f 88//86 87//84 103//90
f 82//87 81//85 97//91
f 89//88 88//86 104//92
f 83//89 82//87 98//93
f 90//75 89//88 105//94
f 84//76 83//89 98//93
f 78//78 77//95 93//96
f 91//79 90//75 106//97
f 85//80 84//76 100//98
f 79//81 78//78 94//99
f 86//82 85//80 100//98
f 80//83 79//81 95//100
f 87//84 86//82 102//101
f 81//85 80//83 96//102
f 94//99 93//96 109//103
f 101//104 100//98 115//105
f 95//100 94//99 110//106
f 102//101 101//104 117//107
f 96//102 95//100 111//108
f 103//90 102//101 118//109
f 97//91 96//102 112//110
f 104//92 103//90 119//111
f 98//93 97//91 113//112
f 105//94 104//92 120//113
f 99//114 98//93 113//112
f 93//96 92//115 108//116
f 106//97 105//94 121//117
f 100//98 99//114 115//105
f 113//112 112//110 128//118
f 120//113 119//111 135//119
f 114//120 113//112 128//118
f 108//116 107//121 123//122
f 121//117 120//113 136//123
f 115//105 114//120 130//124
f 109//103 108//116 124//125
f 116//126 115//105 130//124
f 110//106 109//103 125//127
f 117//107 116//126 132//128
f 111//108 110//106 126//129
f 118//109 117//107 133//130
f 112//110 111//108 127//131
f 119//111 118//109 134//132
f 132//128 131//133 146//134
f 126//129 125//127 140//135
f 133//130 132//128 147//136
f 127//131 126//129 141//137
f 134//132 133//130 148//138
f 128//118 127//131 142//139
f 135//119 134//132 149//140
f 129//141 128//118 144//142
f 123//122 122//143 137//144
f 136//123 135//119 150//145
f 130//124 129//141 144//142
f 124//125 123//122 138//146
f 131//133 130//124 146//134
f 125//127 124//125 139//147
f 151//148 150//145 165//149
f 145//150 144//142 159//151
f 139//147 138//146 153//152
f 146//134 145//150 161//153
f 140//135 139//147 154//154
f 147//136 146//134 161//153
f 141//137 140//135 155//155
f 148//138 147//136 162//156
f 142//139 141//137 156//157
f 149//140 148//138 163//158
f 143//159 142//139 157//160
f 150//145 149//140 164//161
f 144//142 143//159 159//151
f 138//146 137//144 152//162
f 164//161 163//158 178//163
f 158//164 157//160 172//165
f 165//149 164//161 179//166
f 159//151 158//164 173//167
f 153//152 152//162 167//168
f 166//169 165//149 180//170
f 160//171 159//151 174//172
f 154//154 153//152 168//173
f 161//153 160//171 176//174
f 155//155 154//154 169//175
f 162//156 161//153 176//174
f 156//157 155//155 170//176
f 163//158 162//156 177//177
f 157//160 156//157 171//178
f 177//177 176//174 191//179
f 171//178 170//176 185//180
f 178//163 177//177 192//181
f 172//165 171//178 186//182
f 179//166 178//163 193//183
f 173//167 172//165 187//184
f 180//170 179//166 194//185
f 174//172 173//167 188//186
f 168//173 167//168 182//187
f 181//188 180//170 195//189
f 175//190 174//172 189//191
f 169//175 168//173 183//192
f 176//174 175//190 191//179
f 170//176 169//175 184//193
f 196//194 195//189 210//195
f 190//196 189//191 204//197
f 184//193 183//192 198//198
f 191//179 190//196 206//199
f 185//180 184//193 199//200
f 192//181 191//179 206//199
f 186//182 185//180 200//201
f 193//183 192//181 207//202
f 187//184 186//182 201//203
f 194//185 193//183 208//204
f 188//186 187//184 202//205
f 195//189 194//185 209//206
f 189//191 188//186 203//207
f 183//192 182//187 197//208
f 209//206 208//204 223//209
f 203//207 202//205 217//210
f 210//195 209//206 224//211
f 204//197 203//207 218//212
f 198//198 197//208 212//213
f 211//214 210//195 225//215
f 205//216 204//197 219//217
f 199//200 198//198 213//218
f 206//199 205//216 220//219
f 200//201 199//200 214//220
f 207//202 206//199 221//221
f 201//203 200//201 215//222
f 208//204 207//202 222//223
f 202//205 201//203 216//224
f 222//223 221//221 236//225
f 216//224 215//222 230//226
f 223//209 222//223 237//227
f 217//210 216//224 231//228
f 224//211 223//209 238//229
f 218//212 217//210 232//230
f 225//215 224//211 239//231
f 219//217 218//212 233//232
f 213//218 212//213 227//233
f 226//234 225//215 240//235
f 220//219 219//217 234//236
f 214//220 213//218 228//237
f 221//221 220//219 235//238
f 215//222 214//220 229//239
f 228//237 227//233 242//240
f 241//241 240//235 255//242
f 235//238 234//236 249//243
f 229//239 228//237 243//244
f 236//225 235//238 251//245
f 230//226 229//239 244//246
f 237//227 236//225 251//245
f 231//228 230//226 245//247
f 238//229 237//227 252//248
f 232//230 231//228 246//249
f 239//231 238//229 253//250
f 233//232 232//230 247//251
f 240//235 239//231 254//252
f 234//236 233//232 248//253
f 247//251 246//249 261//254
f 254//252 253//250 268//255
f 248//253 247//251 262//256
f 255//242 254//252 269//257
f 249//243 248//253 263//258
f 243//244 242//240 257//259
f 256//260 255//242 270//261
f 250//262 249//243 264//263
f 244//246 243//244 258//264
f 251//245 250//262 265//265
f 245//247 244//246 259//266
f 252//248 251//245 266//267
f 246//249 245//247 260//268
f 253//250 252//248 267//269
f 266//267 265//265 280//270
f 260//268 259//266 274//271
f 267//269 266//267 281//272
f 261//254 260//268 275//273
f 268//255 267//269 282//274
f 262//256 261//254 276//275
f 269//257 268//255 283//276
f 263//258 262//256 277//277
f 270//261 269//257 284//278
f 264//263 263//258 278//279
f 258//264 257//259 272//280
f 271//281 270//261 285//282
f 265//265 264//263 279//283
f 259//266 258//264 273//284
f 285//282 284//278 299//285
f 279//283 278//279 293//286
f 273//284 272//280 287//287
f 286//288 285//282 300//289
f 280//270 279//283 294//290
f 274//271 273//284 288//291
f 281//272 280//270 296//292
f 275//273 274//271 289//293
f 282//274 281//272 296//292
f 276//275 275//273 290//294
f 283//276 282//274 297//295
f 277//277 276//275 291//296
f 284//278 283//276 298//297
f 278//279 277//277 292//298
f 298//297 297//295 312//299
f 292//298 291//296 306//300
f 299//285 298//297 313//301
f 293//286 292//298 307//302
f 300//289 299//285 314//303
f 294//290 293//286 308//304
f 288//291 287//287 302//305
f 301//306 300//289 315//307
f 295//308 294//290 309//309
f 289//293 288//291 303//310
f 296//292 295//308 311//311
f 290//294 289//293 304//312
f 297//295 296//292 311//311
f 291//296 290//294 305//313
f 311//311 310//314 325//315
f 305//313 304//312 319//316
f 312//299 311//311 326//317
f 306//300 305//313 320//318
f 313//301 312//299 327//319
f 307//302 306//300 321//320
f 314//303 313//301 328//321
f 308//304 307//302 322//322
f 315//307 314//303 329//323
f 309//309 308//304 323//324
f 303//310 302//305 317//325
f 316//326 315//307 330//327
f 310//314 309//309 324//328
f 304//312 303//310 318//329
f 330//327 329//323 344//330
f 324//328 323//324 338//331
f 318//329 317//325 332//332
f 331//333 330//327 345//334
f 325//315 324//328 339//335
f 319//316 318//329 333//336
f 326//317 325//315 340//337
f 320//318 319//316 334//338
f 327//319 326//317 341//339
f 321//320 320//318 335//340
f 328//321 327//319 342//341
f 322//322 321//320 336//342
f 329//323 328//321 343//343
f 323//324 322//322 337//344
f 343//343 342//341 357//345
f 337//344 336//342 351//346
f 344//330 343//343 358//347
f 338//331 337//344 352//348
f 345//334 344//330 359//349
f 339//335 338//331 353//350
f 333//336 332//332 347//351
f 346//352 345//334 360//353
f 340//337 339//335 354//354
f 334//338 333//336 348//355
f 341//339 340//337 355//356
f 335//340 334//338 349//357
f 342//341 341//339 356//358
f 336//342 335//340 350//359
f 356//358 355//356 370//360
f 350//359 349//357 364//361
f 357//345 356//358 371//362
f 351//346 350//359 365//363
f 358//347 357//345 372//364
f 352//348 351//346 366//365
f 359//349 358//347 373//366
f 353//350 352//348 367//367
f 360//353 359//349 374//368
f 354//354 353//350 368//369
f 348//355 347//351 362//370
f 361//371 360//353 375//372
f 355//356 354//354 369//373
f 349//357 348//355 363//374
f 375//372 374//368 390//375
f 369//373 368//369 384//376
f 363//374 362//370 378//377
f 376//378 375//372 391//379
f 370//360 369//373 385//380
f 364//361 363//374 379//381
f 371//362 370//360 386//382
f 365//363 364//361 380//383
f 372//364 371//362 387//384
f 366//365 365//363 381//385
f 373//366 372//364 388//386
f 367//367 366//365 382//387
f 374//368 373//366 389//388
f 368//369 367//367 383//389
f 381//385 380//383 397//390
f 388//386 387//384 404//391
f 382//387 381//385 398//392
f 389//388 388//386 405//393
f 383//389 382//387 399//394
f 390//375 389//388 406//395
f 384//376 383//389 400//396
f 378//377 377//397 394//398
f 391//379 390//375 407//399
f 385//380 384//376 401//400
f 379//381 378//377 395//401
f 386//382 385//380 402//402
f 380//383 379//381 396//403
f 387//384 386//382 403//404
f 401//400 400//396 416//405
f 395//401 394//398 410//406
f 402//402 401//400 417//407
f 396//403 395//401 411//408
f 403//404 402//402 418//409
f 397//390 396//403 412//410
f 404//391 403//404 419//411
f 398//392 397//390 413//412
f 405//393 404//391 420//413
f 399//394 398//392 414//414
f 406//395 405//393 421//415
f 400//396 399//394 415//416
f 394//398 393//417 409//418
f 407//399 406//395 422//419
f 420//413 419//411 435//420
f 414//414 413//412 429//421
f 421//415 420//413 436//422
f 415//416 414//414 430//423
f 409//418 408//424 424//425
f 422//419 421//415 437//426
f 416//405 415//416 431//427
f 410//406 409//418 425//428
f 417//407 416//405 432//429
f 411//408 410//406 426//430
f 418//409 417//407 433//431
f 412//410 411//408 427//432
f 419//411 418//409 434//433
f 413//412 412//410 428//434
f 433//431 432//429 448//435
f 427//432 426//430 442//436
f 434//433 433//431 449//437
f 428//434 427//432 443//438
f 435//420 434//433 450//439
f 429//421 428//434 444//440
f 436//422 435//420 451//441
f 430//423 429//421 445//442
f 424//425 423//443 439//444
f 437//426 436//422 452//445
f 431//427 430//423 446//446
f 425//428 424//425 440//447
f 432//429 431//427 447//448
f 426//430 425//428 441//449
f 452//445 451//441 467//450
f 446//446 445//442 461//451
f 440//447 439//444 455//452
f 447//448 446//446 462//453
f 441//449 440//447 456//454
f 448//435 447//448 463//455
f 442//436 441//449 457//456
f 449//437 448//435 464//457
f 443//438 442//436 458//458
f 450//439 449//437 465//459
f 444//440 443//438 459//460
f 451//441 450//439 466//461
f 445//442 444//440 460//462
f 439//444 438//463 454//464
f 465//459 464//457 480//465
f 459//460 458//458 474//466
f 466//461 465//459 481//467
f 460//462 459//460 475//468
f 454//464 453//469 469//470
f 467//450 466//461 482//471
f 461//451 460//462 476//472
f 455//452 454//464 470//473
f 462//453 461//451 477//474
f 456//454 455//452 471//475
f 463//455 462//453 478//476
f 457//456 456//454 472//477
f 464//457 463//455 479//478
f 458//458 457//456 473//479
f 1//16 392//480 17//32
f 16//481 15//18 31//19
f 16//481 31//19 46//34
f 17//32 392//480 32//51
f 32//51 392//480 47//70
f 16//481 46//34 61//53
f 16//481 61//53 76//72
f 47//70 392//480 62//77
f 16//481 76//72 91//79
f 62//77 392//480 77//95
f 77//95 392//480 92//115
f 16//481 91//79 106//97
f 16//481 106//97 121//117
f 92//115 392//480 107//121
f 107//121 392//480 122//143
f 16//481 121//117 136//123
f 122//143 392//480 137//144
f 16//481 136//123 151//148
f 16//481 151//148 166//169
f 137//144 392//480 152//162
f 152//162 392//480 167//168
f 16//481 166//169 181//188
f 167//168 392//480 182//187
f 16//481 181//188 196//194
f 16//481 196//194 211//214
f 182//187 392//480 197//208
f 197//208 392//480 212//213
f 16//481 211//214 226//234
f 212//213 392//480 227//233
f 16//481 226//234 241//241
f 16//481 241//241 256//260
f 227//233 392//480 242//240
f 242//240 392//480 257//259
f 16//481 256//260 271//281
f 257//259 392//480 272//280
f 16//481 271//281 286//288
f 16//481 286//288 301//306
f 272//280 392//480 287//287
f 287//287 392//480 302//305
f 16//481 301//306 316//326
f 16//481 316//326 331//333
f 302//305 392//480 317//325
f 16//481 331//333 346//352
f 317//325 392//480 332//332
f 332//332 392//480 347//351
f 16//481 346//352 361//371
f 16//481 361//371 376//378
f 347//351 392//480 362//370
f 362//370 392//480 377//397
f 16//481 376//378 391//379
f 377//397 392//480 393//417
f 16//481 391//379 407//399
f 16//481 407//399 422//419
f 393//417 392//480 408//424
f 408//424 392//480 423//443
f 16//481 422//419 437//426
f 423//443 392//480 438//463
f 16//481 437//426 452//445
f 16//481 452//445 467//450
f 438//463 392//480 453//469
f 453//469 392//480 468//482
f 16//481 467//450 482//471
f 478//476 477//474 10//24
f 472//477 471//475 5//5
f 479//478 478//476 11//2
f 473//479 472//477 6//4
f 480//465 479//478 12//1
f 474//466 473//479 7//9
f 468//482 392//480 1//16
f 481//467 480//465 13//7
f 475//468 474//466 8//13
f 469//470 468//482 2//15
f 482//471 481//467 14//11
f 476//472 475//468 9//20
f 470//473 469//470 3//22
f 16//481 482//471 15//18
f 477//474 476//472 9//20
f 471//475 470//473 4//26
f 11//2 27//28 28//3
f 5//5 21//29 22//6
f 12//1 28//3 29//8
f 6//4 22//6 23//10
f 13//7 29//8 30//12
f 7//9 23//10 24//14
f 1//16 17//32 18//17
f 14//11 30//12 31//19
f 8//13 24//14 25//21
f 2//15 18//17 19//23
f 9//20 25//21 26//25
f 3//22 19//23 20//27
f 10//24 26//25 27//28
f 4//26 20//27 21//29
f 29//8 44//43 45//30
f 23//10 38//44 39//31
f 17//32 32//51 33//33
f 30//12 45//30 46//34
f 24//14 39//31 40//35
f 18//17 33//33 34//36
f 25//21 40//35 41//37
f 19//23 34//36 35//38
f 26//25 41//37 42//39
f 20//27 35//38 36//40
f 27//28 42//39 43//41
f 21//29 36//40 37//42
f 28//3 43//41 44//43
f 22//6 37//42 38//44
f 42//39 57//58 58//45
f 36//40 51//59 52//46
f 43//41 58//45 59//47
f 37//42 52//46 53//48
f 44//43 59//47 60//49
f 38//44 53//48 54//50
f 32//51 47//70 48//52
f 45//30 60//49 61//53
f 39//31 54//50 55//54
f 33//33 48//52 49//55
f 40//35 55//54 56//56
f 34//36 49//55 50//57
f 41//37 56//56 57//58
f 35//38 50//57 51//59
f 55//54 70//73 71//60
f 49//55 64//74 65//61
f 56//56 71//60 72//62
f 50//57 65//61 66//63
f 57//58 72//62 73//64
f 51//59 66//63 67//65
f 58//45 73//64 74//66
f 52//46 67//65 68//67
f 59//47 74//66 75//68
f 53//48 68//67 69//69
f 47//70 62//77 63//71
f 60//49 75//68 76//72
f 54//50 69//69 70//73
f 48//52 63//71 64//74
f 74//66 89//88 90//75
f 68//67 83//89 84//76
f 62//77 77//95 78//78
f 75//68 90//75 91//79
f 69//69 84//76 85//80
f 63//71 78//78 79//81
f 70//73 85//80 86//82
f 64//74 79//81 80//83
f 71//60 86//82 87//84
f 65//61 80//83 81//85
f 72//62 87//84 88//86
f 66//63 81//85 82//87
f 73//64 88//86 89//88
f 67//65 82//87 83//89
f 87//84 102//101 103//90
f 81//85 96//102 97//91
f 88//86 103//90 104//92
f 82//87 97//91 98//93
f 89//88 104//92 105//94
f 99//114 84//76 98//93
f 77//95 92//115 93//96
f 90//75 105//94 106//97
f 84//76 99//114 100//98
f 78//78 93//96 94//99
f 101//104 86//82 100//98
f 79//81 94//99 95//100
f 86//82 101//104 102//101
f 80//83 95//100 96//102
f 93//96 108//116 109//103
f 116//126 101//104 115//105
f 94//99 109//103 110//106
f 101//104 116//126 117//107
f 95//100 110//106 111//108
f 102//101 117//107 118//109
f 96//102 111//108 112//110
f 103//90 118//109 119//111
f 97//91 112//110 113//112
f 104//92 119//111 120//113
f 114//120 99//114 113//112
f 92//115 107//121 108//116
f 105//94 120//113 121//117
f 99//114 114//120 115//105
f 112//110 127//131 128//118
f 119//111 134//132 135//119
f 129//141 114//120 128//118
f 107//121 122//143 123//122
f 120//113 135//119 136//123
f 114//120 129//141 130//124
f 108//116 123//122 124//125
f 131//133 116//126 130//124
f 109//103 124//125 125//127
f 116//126 131//133 132//128
f 110//106 125//127 126//129
f 117//107 132//128 133//130
f 111//108 126//129 127//131
f 118//109 133//130 134//132
f 147//136 132//128 146//134
f 141//137 126//129 140//135
f 148//138 133//130 147//136
f 142//139 127//131 141//137
f 149//140 134//132 148//138
f 143//159 128//118 142//139
f 150//145 135//119 149//140
f 128//118 143//159 144//142
f 138//146 123//122 137//144
f 151//148 136//123 150//145
f 145//150 130//124 144//142
f 139//147 124//125 138//146
f 130//124 145//150 146//134
f 140//135 125//127 139//147
f 166//169 151//148 165//149
f 160//171 145//150 159//151
f 154//154 139//147 153//152
f 145//150 160//171 161//153
f 155//155 140//135 154//154
f 162//156 147//136 161//153
f 156//157 141//137 155//155
f 163//158 148//138 162//156
f 157//160 142//139 156//157
f 164//161 149//140 163//158
f 158//164 143//159 157//160
f 165//149 150//145 164//161
f 143//159 158//164 159//151
f 153//152 138//146 152//162
f 179//166 164//161 178//163
f 173//167 158//164 172//165
f 180//170 165//149 179//166
f 174//172 159//151 173//167
f 168//173 153//152 167//168
f 181//188 166//169 180//170
f 175//190 160//171 174//172
f 169//175 154//154 168//173
f 160//171 175//190 176//174
f 170//176 155//155 169//175
f 177//177 162//156 176//174
f 171//178 156//157 170//176
f 178//163 163//158 177//177
f 172//165 157//160 171//178
f 192//181 177//177 191//179
f 186//182 171//178 185//180
f 193//183 178//163 192//181
f 187//184 172//165 186//182
f 194//185 179//166 193//183
f 188//186 173//167 187//184
f 195//189 180//170 194//185
f 189//191 174//172 188//186
f 183//192 168//173 182//187
f 196//194 181//188 195//189
f 190//196 175//190 189//191
f 184//193 169//175 183//192
f 175//190 190//196 191//179
f 185//180 170//176 184//193
f 211//214 196//194 210//195
f 205//216 190//196 204//197
f 199//200 184//193 198//198
f 190//196 205//216 206//199
f 200//201 185//180 199//200
f 207//202 192//181 206//199
f 201//203 186//182 200//201
f 208//204 193//183 207//202
f 202//205 187//184 201//203
f 209//206 194//185 208//204
f 203//207 188//186 202//205
f 210//195 195//189 209//206
f 204//197 189//191 203//207
f 198//198 183//192 197//208
f 224//211 209//206 223//209
f 218//212 203//207 217//210
f 225//215 210//195 224//211
f 219//217 204//197 218//212
f 213//218 198//198 212//213
f 226//234 211//214 225//215
f 220//219 205//216 219//217
f 214//220 199//200 213//218
f 221//221 206//199 220//219
f 215//222 200//201 214//220
f 222//223 207//202 221//221
f 216//224 201//203 215//222
f 223//209 208//204 222//223
f 217//210 202//205 216//224
f 237//227 222//223 236//225
f 231//228 216//224 230//226
f 238//229 223//209 237//227
f 232//230 217//210 231//228
f 239//231 224//211 238//229
f 233//232 218//212 232//230
f 240//235 225//215 239//231
f 234//236 219//217 233//232
f 228//237 213//218 227//233
f 241//241 226//234 240//235
f 235//238 220//219 234//236
f 229//239 214//220 228//237
f 236//225 221//221 235//238
f 230//226 215//222 229//239
f 243//244 228//237 242//240
f 256//260 241//241 255//242
f 250//262 235//238 249//243
f 244//246 229//239 243//244
f 235//238 250//262 251//245
f 245//247 230//226 244//246
f 252//248 237//227 251//245
f 246//249 231//228 245//247
f 253//250 238//229 252//248
f 247//251 232//230 246//249
f 254//252 239//231 253//250
f 248//253 233//232 247//251
f 255//242 240//235 254//252
f 249//243 234//236 248//253
f 262//256 247//251 261//254
f 269//257 254//252 268//255
f 263//258 248//253 262//256
f 270//261 255//242 269//257
f 264//263 249//243 263//258
f 258//264 243//244 257//259
f 271//281 256//260 270//261
f 265//265 250//262 264//263
f 259//266 244//246 258//264
f 266//267 251//245 265//265
f 260//268 245//247 259//266
f 267//269 252//248 266//267
f 261//254 246//249 260//268
f 268//255 253//250 267//269
f 281//272 266//267 280//270
f 275//273 260//268 274//271
f 282//274 267//269 281//272
f 276//275 261//254 275//273
f 283//276 268//255 282//274
f 277//277 262//256 276//275
f 284//278 269//257 283//276
f 278//279 263//258 277//277
f 285//282 270//261 284//278
f 279//283 264//263 278//279
f 273//284 258//264 272//280
f 286//288 271//281 285//282
f 280//270 265//265 279//283
f 274//271 259//266 273//284
f 300//289 285//282 299//285
f 294//290 279//283 293//286
f 288//291 273//284 287//287
f 301//306 286//288 300//289
f 295//308 280//270 294//290
f 289//293 274//271 288//291
f 280//270 295//308 296//292
f 290//294 275//273 289//293
f 297//295 282//274 296//292
f 291//296 276//275 290//294
f 298//297 283//276 297//295
f 292//298 277//277 291//296
f 299//285 284//278 298//297
f 293//286 278//279 292//298
f 313//301 298//297 312//299
f 307//302 292//298 306//300
f 314//303 299//285 313//301
f 308//304 293//286 307//302
f 315//307 300//289 314//303
f 309//309 294//290 308//304
f 303//310 288//291 302//305
f 316//326 301//306 315//307
f 310//314 295//308 309//309
f 304//312 289//293 303//310
f 295//308 310//314 311//311
f 305//313 290//294 304//312
f 312//299 297//295 311//311
f 306//300 291//296 305//313
f 326//317 311//311 325//315
f 320//318 305//313 319//316
f 327//319 312//299 326//317
f 321//320 306//300 320//318
f 328//321 313//301 327//319
f 322//322 307//302 321//320
f 329//323 314//303 328//321
f 323//324 308//304 322//322
f 330//327 315//307 329//323
f 324//328 309//309 323//324
f 318//329 303//310 317//325
f 331//333 316//326 330//327
f 325//315 310//314 324//328
f 319//316 304//312 318//329
f 345//334 330//327 344//330
f 339//335 324//328 338//331
f 333//336 318//329 332//332
f 346//352 331//333 345//334
f 340//337 325//315 339//335
f 334//338 319//316 333//336
f 341//339 326//317 340//337
f 335//340 320//318 334//338
f 342//341 327//319 341//339
f 336//342 321//320 335//340
f 343//343 328//321 342//341
f 337//344 322//322 336//342
f 344//330 329//323 343//343
f 338//331 323//324 337//344
f 358//347 343//343 357//345
f 352//348 337//344 351//346
f 359//349 344//330 358//347
f 353//350 338//331 352//348
f 360//353 345//334 359//349
f 354//354 339//335 353//350
f 348//355 333//336 347//351
f 361//371 346//352 360//353
f 355//356 340//337 354//354
f 349//357 334//338 348//355
f 356//358 341//339 355//356
f 350//359 335//340 349//357
f 357//345 342//341 356//358
f 351//346 336//342 350//359
f 371//362 356//358 370//360
f 365//363 350//359 364//361
f 372//364 357//345 371//362
f 366//365 351//346 365//363
f 373//366 358//347 372//364
f 367//367 352//348 366//365
f 374//368 359//349 373//366
f 368//369 353//350 367//367
f 375//372 360//353 374//368
f 369//373 354//354 368//369
f 363//374 348//355 362//370
f 376//378 361//371 375//372
f 370//360 355//356 369//373
f 364//361 349//357 363//374
f 374//368 389//388 390//375
f 368//369 383//389 384//376
f 362//370 377//397 378//377
f 375//372 390//375 391//379
f 369//373 384//376 385//380
f 363//374 378//377 379//381
f 370//360 385//380 386//382
f 364//361 379//381 380//383
f 371//362 386//382 387//384
f 365//363 380//383 381//385
f 372//364 387//384 388//386
f 366//365 381//385 382//387
f 373//366 388//386 389//388
f 367//367 382//387 383//389
f 380//383 396//403 397//390
f 387//384 403//404 404//391
f 381//385 397//390 398//392
f 388//386 404//391 405//393
f 382//387 398//392 399//394
f 389//388 405//393 406//395
f 383//389 399//394 400//396
f 377//397 393//417 394//398
f 390//375 406//395 407//399
f 384//376 400//396 401//400
f 378//377 394//398 395//401
f 385//380 401//400 402//402
f 379//381 395//401 396//403
f 386//382 402//402 403//404
f 400//396 415//416 416//405
f 394//398 409//418 410//406
f 401//400 416//405 417//407
f 395//401 410//406 411//408
f 402//402 417//407 418//409
f 396//403 411//408 412//410
f 403//404 418//409 419//411
f 397//390 412//410 413//412
f 404//391 419//411 420//413
f 398//392 413//412 414//414
f 405//393 420//413 421//415
f 399//394 414//414 415//416
f 393//417 408//424 409//418
f 406//395 421//415 422//419
f 419//411 434//433 435//420
f 413//412 428//434 429//421
f 420//413 435//420 436//422
f 414//414 429//421 430//423
f 408//424 423//443 424//425
f 421//415 436//422 437//426
f 415//416 430//423 431//427
f 409//418 424//425 425//428
f 416//405 431//427 432//429
f 410//406 425//428 426//430
f 417//407 432//429 433//431
f 411//408 426//430 427//432
f 418//409 433//431 434//433
f 412//410 427//432 428//434
f 432//429 447//448 448//435
f 426//430 441//449 442//436
f 433//431 448//435 449//437
f 427//432 442//436 443//438
f 434//433 449//437 450//439
f 428//434 443//438 444//440
f 435//420 450//439 451//441
f 429//421 444//440 445//442
f 423//443 438//463 439//444
f 436//422 451//441 452//445
f 430//423 445//442 446//446
f 424//425 439//444 440//447
f 431//427 446//446 447//448
f 425//428 440//447 441//449
f 451//441 466//461 467//450
f 445//442 460//462 461//451
f 439//444 454//464 455//452
f 446//446 461//451 462//453
f 440//447 455//452 456//454
f 447//448 462//453 463//455
f 441//449 456//454 457//456
f 448//435 463//455 464//457
f 442//436 457//456 458//458
f 449//437 464//457 465//459
f 443//438 458//458 459//460
f 450//439 465//459 466//461
f 444//440 459//460 460//462
f 438//463 453//469 454//464
f 464//457 479//478 480//465
f 458//458 473//479 474//466
f 465//459 480//465 481//467
f 459//460 474//466 475//468
f 453//469 468//482 469//470
f 466//461 481//467 482//471
f 460//462 475//468 476//472
f 454//464 469//470 470//473
f 461//451 476//472 477//474
f 455//452 470//473 471//475
f 462//453 477//474 478//476
f 456//454 471//475 472//477
f 463//455 478//476 479//478
f 457//456 472//477 473//479
f 11//2 478//476 10//24
f 471//475 4//26 5//5
f 12//1 479//478 11//2
f 472//477 5//5 6//4
f 13//7 480//465 12//1
f 473//479 6//4 7//9
f 14//11 481//467 13//7
f 474//466 7//9 8//13
f 468//482 1//16 2//15
f 15//18 482//471 14//11
f 475//468 8//13 9//20
f 469//470 2//15 3//22
f 10//24 477//474 9//20
f 470//473 3//22 4//26
